…
    ## [1]  5 11  5  1

``` r
potential_sites %>%
  group_by(Technology, MW) %>%
  arrange((desc(MW))) %>%
  top_n(n = 11)
```

    ## Selecting by MW

    ## # A tibble: 50 × 6
    ## # Groups:   Technology, MW [34]
    ##       X. Site                       Latitude      Longtitude   Technology     MW
    ##    <int> <chr>                      <chr>         <chr>        <chr>       <int>
    ##  1     1 " Loch Doon"               " 55.2841° N" " 4.3762° W" Wind >=50M…   200
    ##  2    35 " Loch Ness"               " 57.3229° N" " 4.4244° W" Wind >=50M…   150
    ##  3    17 " Glenkiln Sculpture Walk" " 55.1417° N" " 3.8498° W" Wind >=50M…    95
    ##  4    26 " Brimham Rocks"           " 54.0868° N" " 1.6569° W" Wind >=50M…    95
    ##  5    32 " Glenfinnan Viaduct"      " 56.8727° N" " 5.4317° W" Wind >=50M…    90
    ##  6     4 " Straiton Pond"           " 55.2392° N" " 4.5411° W" SOLAR          85
    ##  7    47 " Polesden Lacey"          " 51.2641° N" " 0.3995° W" Wind >=50M…    85
    ##  8     6 " Ailsa Craig"             " 55.2489° N" " 5.1397° W" SOLAR          80
    ##  9    39 " Glen Coe"                " 56.6827° N" " 5.0179° W" Wind >=50M…    75
    ## 10    22 " Aysgarth Falls"          " 54.3054° N" " 1.9481° W" Wind >=50M…    65
    ## # … with 40 more rows

``` r
potential_sites %>%
  group_by(Technology) %>%
  slice_max(order_by = MW, n = 11)
```

    ## # A tibble: 41 × 6
    ## # Groups:   Technology [4]
    ##       X. Site                          Latitude      Longtitude   Techno…¹    MW
    ##    <int> <chr>                         <chr>         <chr>        <chr>    <int>
    ##  1    50 " Cranborne Chase AONB"       " 50.9754° N" " 2.0032° W" BESS SPP    40
    ##  2    25 " Gordale Scar"               " 54.0609° N" " 2.1635° W" BESS SPP    35
    ##  3    14 " Doonfoot Beach"             " 55.3299° N" " 4.6519° W" BESS SPP    25
    ##  4    24 " Studley Royal Water Garden" " 54.1368° N" " 1.5596° W" BESS SPP    25
    ##  5     5 " Glenapp Castle"             " 55.0576° N" " 4.9456° W" BESS SPP    20
    ##  6    20 " Blairquhan Castle"          " 55.2655° N" " 4.6575° W" BESS SPP    20
    ##  7     4 " Straiton Pond"              " 55.2392° N" " 4.5411° W" SOLAR       85
    ##  8     6 " Ailsa Craig"                " 55.2489° N" " 5.1397° W" SOLAR       80
    ##  9    28 " Hardcastle Crags"           " 53.7666° N" " 2.0116° W" SOLAR       65
    ## 10    10 " Ardwell Gardens"            " 54.8343° N" " 4.9567° W" SOLAR       53
    ## # … with 31 more rows, and abbreviated variable name ¹​Technology
